<svg xmlns="http://www.w3.org/2000/svg" viewBox="0 0 36 36">
<clipPath id="roundedCorners">
	<path d="M36 27  c0 2.209-1.791 4-4 4  H4  c-2.209 0-4-1.791-4-4  V9  c0-2.209 1.791-4 4-4  h28  c2.209 0 4 1.791 4 4v18  z"/>
</clipPath>
<g clip-path="url(#roundedCorners)">
<svg xmlns="http://www.w3.org/2000/svg" preserveAspectRatio="xMidYMid slice"
	x="0" y="5" width="36" height="26" viewBox="0 0 900 600">
	<g transform="translate(-159.09187,-109.52031)">
		<rect style="fill:#000080;" width="900" height="600" x="159.09187" y="109.52031"/>

		<circle style="fill:#ffffff" cx="609.09192" cy="409.52032" r="240"/>
		<circle style="fill:#18de9c" cx="609.09192" cy="409.52032" r="225"/>
		<path style="fill:#ffffff" d="m 834.09192,409.52032 -42.07842,24.08209 34.41173,34.1522 -46.87754,12.37081 24.39994,41.8949 -48.48202,-0.18351 12.72533,46.78254 -46.78254,-12.72533 0.18352,48.48202 -41.89491,-24.39994 -12.37081,46.87754 -34.1522,-34.41174 -24.08208,42.07842 -24.08208,-42.07842 -34.15221,34.41174 -12.3708,-46.87754 -41.89491,24.39994 0.18352,-48.48202 -46.78255,12.72533 12.72534,-46.78254 -48.48203,0.18351 24.39995,-41.8949 -46.87754,-12.37081 34.41173,-34.1522 -42.07842,-24.08209 42.07842,-24.08208 -34.41173,-34.1522 46.87753,-12.37081 -24.39994,-41.89491 48.48203,0.18352 -12.72534,-46.78254 46.78254,12.72533 -0.18351,-48.48202 41.89491,24.39994 12.3708,-46.87754 34.15221,34.41174 24.08208,-42.07843 24.08208,42.07843 34.1522,-34.41174 12.37081,46.87754 41.89491,-24.39994 -0.18352,48.48202 46.78254,-12.72533 -12.72533,46.78254 48.48202,-0.18352 -24.39994,41.89491 46.87754,12.37081 -34.41173,34.1522 z"/>
		<circle style="fill:#000000" cx="609.09192" cy="409.52371" r="184.5"/>

		<g style="fill:#ffffff" transform="matrix(1.3623157,0,0,1.4004446,281.51794,-1018.0173)">
			<path style="fill:#ffffff;" d="m 188.83491,942.28672 -25.4558,106.39518 c 0,0 35.3553,26.0381 43.84053,50.3625 4.24264,12.1623 18.12575,12.4152 33.23397,12.4152 14.96,0 30.40552,-7.0097 30.40552,-7.0097 l -22.62737,-172.97405 -7.77797,-4.24345 z"/>
			<path style="fill:#ffffff;" d="m 292.0726,942.28672 25.4558,106.39518 c 0,0 -35.3553,26.0381 -43.84054,50.3625 -4.24263,12.1623 -18.12574,12.4152 -33.23396,12.4152 -14.96,0 -30.40552,-7.0097 -30.40552,-7.0097 l 22.62736,-172.97405 7.77798,-4.24345 z"/>
		</g>
		<g style="fill:#ff0000" transform="matrix(1.0540699,0,0,1.2765958,355.78557,-891.85688)">
			<path style="fill:#ff0000;" d="m 185.22767,934.80758 -27.16509,116.71712 c 0,0 37.7293,28.5641 46.7843,55.2485 4.52752,13.3421 19.33775,13.6889 35.46556,13.6889 16.0194,0 32.44715,-7.759 32.44715,-7.759 l -24.14673,-189.75522 -8.30018,-4.58576 z"/>
			<path style="fill:#ff0000;" d="m 295.39761,934.80758 27.1651,116.71712 c 0,0 -37.72931,28.5641 -46.78431,55.2485 -4.52751,13.3421 -19.33775,13.6889 -35.46555,13.6889 -16.01941,0 -32.44716,-7.759 -32.44716,-7.759 l 24.14673,-189.75522 8.30019,-4.58576 z"/>
		</g>
		<g style="fill:#ffffff" transform="matrix(0.73784897,0,0,1.2765958,431.13116,-891.85688)">
			<path style="fill:#ffffff;" d="m 184.79795,934.80758 -27.16508,116.71712 c 0,0 37.72931,28.5641 46.7843,55.2485 4.52752,13.3421 20.83393,13.6889 36.77109,13.6889 16.19763,0 31.14162,-7.759 31.14162,-7.759 l -24.14673,-189.75522 -6.99454,-4.58576 z"/>
			<path style="fill:#ffffff;" d="M 297.57892,934.80758 324.744,1051.5247 c 0,0 -37.72931,28.5641 -46.7843,55.2485 -4.52751,13.3421 -20.83393,13.6889 -36.77109,13.6889 -16.19763,0 -31.14162,-7.759 -31.14162,-7.759 l 24.14674,-189.75522 6.99453,-4.58576 z"/>
		</g>
		<g style="fill:#ff0000" transform="matrix(0.37478042,0,0,1.2765958,517.77279,-891.85688)">
			<path style="fill:#ff0000;" d="m 183.43428,934.80758 -20.76134,116.71712 c 0,0 31.32556,28.5641 40.38056,55.2485 4.52751,13.3421 23.36633,13.6889 40.60618,13.6889 17.16802,0 27.30653,-7.759 27.30653,-7.759 l -24.14673,-189.75522 -3.15912,-4.58576 z"/>
			<path style="fill:#ff0000;" d="m 303.88608,934.8076 20.76133,116.7171 c 0,0 -31.32555,28.5641 -40.38056,55.2485 -4.52751,13.3421 -23.36632,13.6889 -40.60618,13.6889 -17.16801,0 -27.30652,-7.759 -27.30652,-7.759 l 24.14673,-189.7552 3.15911,-4.58576 z"/>
		</g>
	</g>
</svg></g></svg>